{
    "name": "Akregator",
    "repository": ["git", "akregator"],
	"parent": "kde",
    "icon": ["own", "src/icons/hi{size}-app-akregator.png"],

    "description":
        "<p><b>Akregator</b> is a news feed reader by KDE. It enables you to follow news sites, blogs and other RSS/Atom-enabled websites without the need to manually check for updates using a web browser. Akregator is designed to be both easy to use and to be powerful enough to read hundreds of news sources conveniently. It comes with Konqueror integration for adding news feeds and with an internal browser for easy news reading.</p>",

    "features": false,
    "homepage": false,
    "kde-apps.org":15621,

    "userbase": "Akregator",
    "forum": 20,
    "handbook": "http://docs.kde.org/?application=akregator",

    "irc": "#akregator",
    "mailing lists": ["kdepim-users@kde.org", "kde-pim@kde.org"],

    "ci": "Applications",
    "bugs": "akregator"
}
