{
    "authors":[
        [
            "Mehrdad Momeny",
            "Core Developer",
            "mehrdad.momeny@gmail.com",
            null
        ],
        [
            "Golnaz Nilieh",
            "Core Developer",
            "g382nilieh@gmail.com",
            null
        ]
    ],
    "category":"Unmaintained",
    "credits":[
        [
            "Roozbeh Shafiee",
            "Icon designer",
            "roozbeh@roozbehonline.com",
            null
        ],
        [
            "Sajjad Baroodkoo",
            "Icon designer",
            "sajjad@graphit.ir",
            null
        ]
    ],
    "generic name":"A KDE Blogging Client",
    "license":"GPL_V2"
}
