{
    "authors":[
        [
            "Aron Bostr\u00f6m",
            "Author",
            "aron.bostrom@gmail.com",
            null
        ]
    ],
    "category":"Games",
    "credits":[],
    "generic name":"Five-in-a-row Board Game",
    "license":"GPL"
}