{
    "authors":[
        [
            "Bernd Gehrmann",
            "Original author and former maintainer",
            "bernd@mail.berlios.de",
            null
        ],
        [
            "Christian Loose",
            "Maintainer",
            "christian.loose@kdemail.net",
            null
        ],
        [
            "Andr\u00e9 W\u00f6bbeking",
            "Developer",
            "woebbeking@kde.org",
            null
        ],
        [
            "Carlos Woelz",
            "Documentation",
            "carloswoelz@imap-mail.com",
            null
        ]
    ],
    "category":"Development",
    "credits":[
        [
            "Richard Moore",
            "Conversion to KPart",
            "rich@kde.org",
            null
        ],
        [
            "Laurent Montel",
            "Conversion to D-Bus",
            "montel@kde.org",
            null
        ]
    ],
    "generic name":"CVS Frontend",
    "license":"GPL"
}