{
    "authors":[
        [
            "Mehrdad Momeny",
            "Author and Core Developer",
            "mehrdad.momeny@gmail.com",
            "http://identi.ca/mtux"
        ]
    ],
    "category":"Internet",
    "credits":[
        [
            "Roozbeh Shafiee",
            "Graphic designer",
            "roozbeh@roozbehonline.com",
            null
        ],
        [
            "Daniel Schaal",
            "UI improvements",
            "daniel@foto-schaal.de",
            null
        ],
        [
            "Stephen Henderson",
            "Search API implementation",
            "hendersonsk@gmail.com",
            null
        ],
        [
            "Tejas Dinkar",
            "Developer",
            "tejasdinkar@gmail.com",
            "http://twitter.com/tdinkar"
        ]
    ],
    "generic name":"KDE Micro-blogging Client",
    "license":"GPL_V3"
}