{
    "name": "Dragon Player",
	"parent": "kde/kdemultimedia",
    "repository": ["git", "dragon"],
    "icon": ["own", "misc/hi{size}-app-dragonplayer.png"],

    "description":
        "<p><b>Dragon Player</b> is a multimedia player where the focus is on simplicity, instead of features. Dragon Player does one thing, and only one thing, which is playing multimedia files. It's simple interface is designed not to get in your way and instead empower you to simply play multimedia files.</p>",

    "features":
    [
        "Simple Interface",
        "Resuming videos: Starts playing a video where you were watching it last time",
        "Support for subtitles: Automatically loads subtitles with the matching name",
        "Video display settings (brightness, contrast)",
        "Due to using Solid and Phonon DragonPlayer is independent of any multimedia framework or hardware abstraction layer.",
        "Supports playing CDs and DVDs"
    ],
    "homepage": false,
    "kde-apps.org": 17161,

    "userbase": "Dragon_Player",
    "forum": 19,
    "handbook": "http://docs.kde.org/stable/en/kdemultimedia/dragonplayer/index.html",

    "irc": false,
    "mailing lists": false,

    "cia.vc": "kde/dragonplayer",
    "ci": "Applications",
    "bugs": "dragonplayer"
}
