{
    "name": "GCompris",
    "repository": ["git", "gcompris"],
    "parent": "extragear/edu",
    "icon": ["own", "icons/hi{size}-app-gcompris.png"],

    "description":
        "<p><strong>GCompris</strong> is an educational software suite comprising of numerous activities for children aged 2 to 10</p>",
    "subject": "Miscellaneous",
    "age": ["Preschool", "School"],

    "features":
    [
        "Some of the activities are game orientated, but nonetheless still educational",
        "Below you can find a list of categories with some of the activities available in that category",
        "Computer discovery: keyboard, mouse, different mouse gestures",
        "Arithmetic: table memory, enumeration, mirror image, balance the scale, change giving",
        "Science: the canal lock, color mixing, gravity concept",
        "Games: memory, connect 4, tic tac toe, sudoku, hanoi tower",
        "Reading: reading practice",
        "Other: learn to tell time, the braille system, maze, music instruments",
        "Currently GCompris offers in excess of 100 activities and more are being developed. GCompris is free software, that means that you can adapt it to your own needs, improve it and, most importantly, share it with children everywhere"
    ],
    "homepage": "http://gcompris.net/",
    "kde-apps.org": false,
    "appstream": "org.kde.gcompris.desktop",

    "userbase": false,
    "forum": 21,
    "handbook": "http://docs.kde.org/?language=en&application=gcompris",

    "irc": "#gcompris",
    "mailing lists": "gcompris-devel@kde.org",

    "cia.vc": false,
    "ci": "Extragear",
    "bugs": "gcompris"
}
