{
    "name": "K3b",
    "parent": "extragear/multimedia",
    "repository": ["git", "k3b"],
    "icon": ["oxygen", "apps/k3b.png"],

    "description":
        "<p><b>K3b</b> is a full-featured, easy to use CD and DVD burner, copier, ripper and more.</p>",

    "features":
    [
        "Burn and Copy CDs and DVDs",
        "Rip and Create audio CDs",
        "Rip DVDs",
        "Create mixed CDs (audio + data)",
        "Create video CDs"
    ],
    "homepage": "http://k3b.org/",
    "kde-apps.org": 9875,

    "userbase": "K3b",
    "forum": 153,
    "handbook": "http://docs.kde.org/development/en/extragear-multimedia/k3b/index.html",

    "irc": "#k3b",
    "mailing lists": "k3b@kde.org",

    "cia.vc": "kde/k3b",
    "ci": "Applications",
    "bugs": "k3b"
}
