{
    "name": "KAddressBook",
    "repository": ["git", "kaddressbook"],
	"parent": "kde",
    "icon": ["own", "icons/hi{size}-apps-kaddressbook.png"],

    "description":
        "<p><b>KAddressBook</b> stores all the personal details of your family, friends and other contacts.</p>",

    "features":
    [
        "Imports and exports to nearly every address book standard",
        "Reads .vcf format files, and can import and export vCards and csv format files",
        "Can use multiple LDAPservers",
        "Configurable filters and powerful search capabilities",
        "Integrates with other Kontact components, e.g. exporting Birthday reminders to KOrganizer",
        "Capable of groupware integration",
        "Powered by Akonadi"
    ],
    "homepage": false,
    "kde-apps.org": false,

    "userbase": "KAddressBook",
    "forum": 20,
    "handbook": false,

    "irc": "#kontact",
    "mailing lists": ["kdepim-users@kde.org", "kde-pim@kde.org"],

    "ci": "Applications",
    "bugs": "kaddressbook"
}
