{
    "authors":[
        [
            "Christoph Pfister",
            "Former Maintainer",
            "christophpfister@gmail.com",
            null
        ],
        [
            "Mauro Carvalho Chehab",
            "Port to KF5",
            "mchehab@infradead.org",
            null
        ],
        [
            "Lasse Lindqvist",
            "Maintainer (for KDE4)",
            "lasse.k.lindqvist@gmail.com",
            null
        ],
        [
            "Christophe Thommeret",
            "",
            "",
            null
        ],
        [
            "Jürgen Kofler",
            "",
            "",
            null
        ]
    ],
    "category":"Multimedia",
    "credits":[],
    "generic name":"Media Player",
    "license":"GPL_V2"
}
