{
    "authors":[
        [
            "David Jarvie",
            "",
            "djarvie@kde.org",
            null
        ]
    ],
    "category":"Utilities",
    "credits":[],
    "generic name":"Personal Alarm Scheduler",
    "license":"GPL"
}