{
    "authors":[
        [
            "Carsten Niehaus",
            "",
            "cniehaus@kde.org",
            null
        ]
    ],
    "category":"Education",
    "credits":[
        [
            "Pino Toscano",
            "Large code contributions; resident guru helping the other developers",
            null,
            null
        ],
        [
            "Benoit Jacob",
            "Base work on the molecular viewer, mentored Marcus during his SoC",
            null,
            null
        ],
        [
            "Marcus Hanwell",
            "SoC on the molecular viewer and libavogadro porting/integration",
            null,
            null
        ],
        [
            "Kashyap R Puranik",
            "SoC on the calculator widget and a few smaller improvements",
            null,
            null
        ],
        [
            "Thomas Nagy",
            "EqChem, the equation solver",
            null,
            null
        ],
        [
            "Inge Wallin",
            "Code cleaning, parser for the molecule weight calculator, and a lot of smaller improvements",
            null,
            null
        ],
        [
            "Anne-Marie Mahfouf",
            "A lot of small things and the documentation",
            null,
            null
        ],
        [
            "Johannes Simon",
            "Code and documentation contributions to the equation solver and molecular viewer",
            null,
            null
        ],
        [
            "Jarle Akselsen",
            "Many beautiful element icons",
            null,
            null
        ],
        [
            "No\u00e9mie Scherer",
            "Many beautiful element icons, too!",
            null,
            null
        ],
        [
            "Danny Allen",
            "Several icons",
            null,
            null
        ],
        [
            "Lee Olson",
            "Several icons in the information dialog",
            null,
            null
        ],
        [
            "J\u00f6rg Buchwald",
            "Contributed most isotope information",
            null,
            null
        ],
        [
            "Marco Martin",
            "Some icons and inspiration for others",
            null,
            null
        ],
        [
            "Daniel Haas",
            "The design of the information dialog",
            null,
            null
        ],
        [
            "Brian Beck",
            "The orbits icon",
            null,
            null
        ],
        [
            "Paulo Cattai",
            "New interface design and usability improvements",
            null,
            null
        ],
        [
            "Danilo Balzaque",
            "New interface design and usability improvements",
            null,
            null
        ],
        [
            "Roberto Cunha",
            "New interface design and usability improvements",
            null,
            null
        ],
        [
            "Tadeu Araujo",
            "New interface design and usability improvements",
            null,
            null
        ],
        [
            "Tiago Porangaba",
            "New interface design and usability improvements",
            null,
            null
        ]
    ],
    "generic name":"Periodic Table of Elements",
    "license":"GPL"
}