{
    "authors":[
        [
            "Alexandre Galinier",
            "Developer",
            "alex.galinier@gmail.com",
            ""
        ],
        [
            "Nathalie Liesse",
            "Developer",
            "nathalie.liesse@gmail.com",
            ""
        ],
        [
            "\u00d6mer Fad\u0131l USTA",
            "Developer",
            "omerusta@gmail.com",
            ""
        ],
        [
            "Pierre-Benoit Besse",
            "Developer",
            "besse.pb@gmail.com",
            ""
        ],
        [
            "Romain Castan",
            "Developer",
            "romaincastan@gmail.com",
            ""
        ],
        [
            "Thomas Gallinari",
            "Developer",
            "tg8187@yahoo.fr",
            ""
        ]
    ],
    "category":"Games",
    "credits":[],
    "generic name":"Pac-Man Clone",
    "license":"GPL"
}