{
    "authors":[
        [
            "Matthias Hoelzer-Kluepfel",
            "",
            "hoelzer@kde.org",
            null
        ],
        [
            "Tobias Koenig",
            "",
            "tokoe@kde.org",
            null
        ]
    ],
    "category":"System",
    "credits":[],
    "generic name":"Menu Updating Tool",
    "license":"GPL"
}