{
    "authors":[
        [
            "Fela Winkelmolen",
            "original author and maintainer",
            "fela.kde@gmail.com",
            null
        ],
        [
            "Eugene Trounev",
            "artwork",
            "eugene.trounev@gmail.com",
            null
        ],
        [
            "Sean Wilson",
            "artwork",
            "suseux@gmail.com",
            null
        ]
    ],
    "category":"Games",
    "credits":[
        [
            "Lorenzo Bonomi",
            "testing",
            "lorenzo.bonomi@hotmail.it",
            null
        ]
    ],
    "generic name":"Breakout-like Game",
    "license":"GPL"
}