{
    "name": "KBreakout",
    "parent": "kde/kdegames",
    "repository": ["git", "kbreakout"],
    "icon": ["own", "pics/hi{size}-app-kbreakout.png"],

    "description":
        "<p><strong>KBreakout</strong> is a Breakout-like game. Its object is to destroy as many bricks as possible without losing the ball.</p>",

    "features": false,
    "homepage": "http://games.kde.org/game.php?game=kbreakout",
    "kde-apps.org": false,

    "userbase": false,
    "forum": 21,
    "handbook": "http://docs.kde.org/stable/en/kdegames/kbreakout/index.html",

    "irc": "#kdegames",
    "mailing lists": "kde-games-devel@kde.org",

    "cia.vc": "kde/kbreakout",
    "ci": "Applications",
    "bugs": "kbreakout"
}
