{
    "name": "KBruch",
    "repository": ["git", "kbruch"],
    "icon": ["own", "src/hi{size}-app-kbruch.png"],

    "description":
        "<p><strong>KBruch</strong> is a small program to practice calculating with fractions and percentages. Different exercises are provided for this purpose and you can use the learning mode to practice with fractions. The program checks the user's input and gives feedback.</p>",
    "age": "School",
    "subject": "Mathematics",

    "features":
    [
        "Arithmetic exercise - in this exercise you have to solve a given fraction task. You have to enter the numerator and the denominator. This is the main exercise.",
        "Comparison exercise - in this exercise you have to compare the size of 2 given fractions, using the symbols >, < or =.",
        "Conversion exercise - in this exercise you have to convert a given number into a fraction.",
        "Factorization exercise - in this exercise you have to factorize a given number into its prime factors.",
        "Percentage exercise - in this exercise you have to calculate percentages."
    ],
    "homepage": false,
    "kde-apps.org": false,
    "appstream": "org.kde.kbruch.desktop",

    "userbase": "KBruch",
    "forum": 21,
    "handbook": "http://docs.kde.org/stable/en/kdeedu/kbruch/index.html",

    "irc": "#kde-edu",
    "mailing lists": "kde-edu@kde.org",

    "cia.vc": "kde/kbruch",
    "ci": "Applications",
    "bugs": "kbruch"
}
