{
    "name": "KCalc",
    "parent": "kde/kdeutils",
    "repository": ["git", "kcalc"],
    "icon": ["oxygen", "apps/accessories-calculator.png"],

    "description":
        "<p><b>KCalc</b> is a calculator which offers many more mathematical functions than meet the eye on a first glance.</p>",

    "features":
    [
        "The usual functionality offered by most scientific calculators",
        "Trigonometric functions, logic operations, and statistical calculations.",
        "Cut and paste numbers from/into its display.",
        "Results-stack which lets you conveniently recall previous results.",
        "Configurable display colors and font.",
        "Configurable precision and the number of digits after the period.",
        "Great number of useful key-bindings, making it easy to use without a pointing device."
    ],
    "homepage": "http://utils.kde.org/projects/kcalc/",
    "kde-apps.org": false,

    "userbase": "KCalc",
    "forum": 225,
    "handbook": "http://docs.kde.org/stable/en/kdeutils/kcalc/index.html",

    "irc": "#kde-utils",
    "mailing lists": "kde-utils-devel@kde.org",

    "cia.vc": "kde/kcalc",
    "ci": "Applications",
    "bugs": "kcalc"
}
