{
    "authors":[
        [
            "Klaus Niederkr\u00fcger",
            "",
            "kniederk@math.uni-koeln.de",
            null
        ],
        [
            "Bernd Johannes Wuebben",
            "",
            "wuebben@kde.org",
            null
        ],
        [
            "Evan Teran",
            "",
            "eteran@alum.rit.edu",
            null
        ],
        [
            "Espen Sand",
            "",
            "espen@kde.org",
            null
        ],
        [
            "Chris Howells",
            "",
            "howells@kde.org",
            null
        ],
        [
            "Aaron J. Seigo",
            "",
            "aseigo@olympusproject.org",
            null
        ],
        [
            "Charles Samuels",
            "",
            "charles@altair.dhs.org",
            null
        ],
        [
            "Ren\u00e9 M\u00e9rou",
            "",
            "ochominutosdearco@yahoo.es",
            null
        ],
        [
            "Michel Marti",
            "",
            "mma@objectxp.com",
            null
        ],
        [
            "David Johnson",
            "Maintainer",
            "david@usermode.org",
            null
        ]
    ],
    "category":"Utilities",
    "credits":[],
    "generic name":"Scientific Calculator",
    "license":"GPL"
}