{
    "name": "KColorChooser",
    "parent": "kde/kdegraphics",
    "repository": ["git", "kcolorchooser"],
    "icon": ["own", "hi{size}-app-kcolorchooser.png"],

    "description":
        "<p><b>KColorChooser</b> is a simple application to select the color from the screen or from a pallete.</p>",

    "features":
    [
        "Select colors from any location on the screen.",
        "Select colors from a range of standard palletes available.",
        "Color values shown in Hue-Saturation-Value (HSV), Red-Green-Blue (RGB) and HTML formats."
    ],
    "homepage": false,
    "kde-apps.org": false,

    "userbase": false,
    "forum": 19,
    "handbook": "http://docs.kde.org/development/en/kde-runtime/fundamentals/colors.html",

    "irc": false,
    "mailing lists": "kde-graphics-devel@kde.org",

    "cia.vc": "kde/kcolorchooser",
    "ci": "Applications",
    "bugs": "kcoloredit"
}
