{
    "authors":[
        [
            "Joachim Eibl",
            "",
            "ByteArray(\"joachim.eibl\" \"@\" \"gmx.de\"",
            null
        ]
    ],
    "category":"Development",
    "credits":[
        [
            "Eike Sauer",
            "Bugfixes, Debian package maintainer",
            null,
            null
        ],
        [
            "Sebastien Fricker",
            "Windows installer",
            null,
            null
        ],
        [
            "Stephan Binner",
            "i18n-help",
            "ByteArray(\"binner\" \"@\" \"kde.org\"",
            null
        ],
        [
            "Stefan Partheymueller",
            "Clipboard-patch",
            null,
            null
        ],
        [
            "David Faure",
            "KIO-Help",
            "ByteArray(\"faure\" \"@\" \"kde.org\" ",
            null
        ],
        [
            "Bernd Gehrmann",
            "Class CvsIgnoreList from Cervisia",
            null,
            null
        ],
        [
            "Andre Woebbeking",
            "Class StringMatcher",
            null,
            null
        ],
        [
            "Michael Denio",
            "Directory Equality-Coloring patch",
            null,
            null
        ],
        [
            "Manfred Koehler",
            "Fix for slow startup on Windows",
            null,
            null
        ],
        [
            "Sergey Zorin",
            "Diff Ext for Windows",
            null,
            null
        ],
        [
            "Paul Eggert, Mike Haertel, David Hayes, Richard Stallman, Len Tower",
            "GNU-Diffutils",
            null,
            null
        ],
        [
            "Tino Boellsterling, Timothy Mee",
            "Intensive test, use and feedback",
            null,
            null
        ],
        [
            "Michael Schmidt",
            "Mac support",
            null,
            null
        ],
        [
            "Valentin Rusu",
            "KDE4 porting",
            "ByteArray(\"kde\" \"@\" \"rusu.info\"",
            null
        ],
        [
            "Albert Astals Cid",
            "KDE4 porting",
            "ByteArray(\"aacid\" \"@\" \"kde.org\"",
            null
        ],
        [
            "+ Many thanks to those who reported bugs and contributed ideas!",
            null,
            null,
            null
        ]
    ],
    "generic name":"Diff/Patch Frontend",
    "license":"GPL_V2"
}