{
    "authors":[
        [
            "\u00c9ric Bischoff",
            "Design and implementation",
            "ebischoff@nerim.net",
            null
        ],
        [
            "Gil Gross",
            "Additional functionality",
            "ptit.ours@gmail.com",
            null
        ]
    ],
    "category":"Office",
    "credits":[
        [
            "Melchior Franz",
            "Design and testing",
            "a8603365@unet.univie.ac.at",
            null
        ],
        [
            "Bas Willems",
            "Graphical artwork",
            "cybersurfer@euronet.nl",
            null
        ]
    ],
    "generic name":"A currency converter and calculator",
    "license":"GPL"
}