{
    "name": "KFourInLine",
    "parent": "kde/kdegames",
    "repository": ["git", "kfourinline"],
    "icon": ["own", "hi{size}-app-kfourinline.png"],

    "description":
        "<p><strong>KFourInLine</strong> is a board game for two players based on the Connect-Four game. The players try to build up a row of four pieces using different strategies.</p>",

    "features": false,
    "homepage": "http://games.kde.org/game.php?game=kfourinline",
    "kde-apps.org": false,

    "userbase": false,
    "forum": 21,
    "handbook": "http://docs.kde.org/stable/en/kdegames/kfourinline/index.html",

    "irc": "#kdegames",
    "mailing lists": "kde-games-devel@kde.org",

    "cia.vc": "kde/kfourinline",
    "ci": "Applications",
    "bugs": "kfourinline"
}
