{
    "authors":[
        [
            "Albert Astals Cid",
            "Programmer and designer",
            "aacid@kde.org",
            null
        ]
    ],
    "category":"Education",
    "generic name":"Geography Trainer",
    "license":"GPL"
}
