{
    "name": "KGeography",
    "repository": ["git", "kgeography"],
    "icon": ["own", "icons/hi{size}-apps-kgeography.png"],

    "description":
        "<p><strong>KGeography</strong> is a geography learning tool, which allows you to learn about the political divisions of some countries (divisions, capitals of those divisions and their associated flags if there are some).</p>",
    "age": "School",
    "subject": "Miscellaneous",

    "features":
    [
        "Browse the maps clicking in a map division to see its name, capital and flag",
        "The game tells you a map division name and you have to click on it",
        "The game tells you a capital and you have to guess the division it belongs to",
        "The game tells you a division and you have to guess its capital",
        "The game shows you a map division flag and you have to guess its name",
        "The game tells you a map division name and you have to guess its flag",
        "The game shows an empty map and you have to place divisions on it one by one"
    ],
    "homepage": false,
    "kde-apps.org": 12391,
    "appstream": "org.kde.kgeography.desktop",

    "userbase": "KGeography",
    "forum": 21,
    "handbook": "http://docs.kde.org/stable/en/kdeedu/kgeography/index.html",

    "irc": "#kde-edu",
    "mailing lists": "kde-edu@kde.org",

    "cia.vc": "kde/kgeography",
    "ci": "Applications",
    "bugs": "kgeography"
}
