{
    "name": "KGpg",
    "parent": "kde/kdeutils",
    "repository": ["git", "kgpg"],
    "icon": ["own", "hi{size}-app-kgpg.png"],

    "description":
        "<p><b>KGpg</b> is a simple interface for GnuPG, a powerful encryption utility. It can help you set up and manage your keys, import and export keys, view key signatures, trust status and expiry dates.</p>",

    "features": false,
    "homepage": "http://utils.kde.org/projects/kgpg/",
    "kde-apps.org": false,

    "userbase": "KGpg",
    "forum": 225,
    "handbook": "http://docs.kde.org/stable/en/kdeutils/kgpg/index.html",

    "irc": "#kde-utils",
    "mailing lists": "kde-utils-devel@kde.org",

    "cia.vc": "kde/kgpg",
    "ci": "Applications",
    "bugs": "kgpg"
}
