{
    "authors":[
        [
            "Ga\u00ebl de Chalendar",
            "",
            "kleag@free.fr",
            null
        ],
        [
            "Ga\u00ebl de Chalendar",
            "Original Author and current maintainer",
            "kleag@free.fr",
            null
        ],
        [
            "Reimar D\u00f6ffinger",
            "Contributor",
            "Reimar.Doeffinger@stud.uni-karlsruhe.de",
            null
        ],
        [
            "Matthias Peinhardt",
            "Contributor",
            "matthias.peinhardt@googlemail.com",
            null
        ],
        [
            "Sandro Andrade",
            "Contributor",
            "sandro.andrade@gmail.com",
            null
        ]
    ],
    "category":"Graphics",
    "credits":[],
    "generic name":"Graphviz dot graph viewer",
    "license":"GPL"
}
