{
    "name": "Kig",
    "repository": ["git", "kig"],
    "icon": ["own", "kig/hi{size}-app-kig.png"],

    "description":
        "<p><strong>Kig</strong> is an application for Interactive Geometry</p>",
    "age": "School",
    "subject": "Mathematics",

    "features":
    [
            "Allows the students to interactively explore mathematical figures and concepts using the computer",
            "Serves as a WYSIWYG tool for drawing mathematical figures and including them in other documents"
    ],
    "homepage": false,
    "kde-apps.org": false,
    "appstream": "org.kde.kig.desktop",

    "userbase": "Kig",
    "forum": 21,
    "handbook": "http://docs.kde.org/stable/en/kdeedu/kig/index.html",

    "irc": "#kde-edu",
    "mailing lists": "kde-edu@kde.org",

    "cia.vc": "kde/kig",
    "ci": "Applications",
    "bugs": "kig"
}
