{
    "authors":[
        [
            "Matthias Kiefer",
            "",
            "matthias.kiefer@gmx.de",
            null
        ],
        [
            "Benjamin Meyer",
            "Various improvements",
            "ben+kjumpingcube@meyerhome.net",
            null
        ]
    ],
    "category":"Games",
    "credits":[
        [
            "Ian Wadham",
            "Upgrade to KDE4 and SVG artwork support.",
            "iandw.au@gmail.com",
            null
        ],
        [
            "Eugene Trounev",
            "Graphics for KDE 4.0 version.",
            "irs_me@hotmail.com",
            null
        ]
    ],
    "generic name":"Territory Capture Game",
    "license":"GPL"
}