{
    "name": "KLettres",
    "repository": ["git", "klettres"],
    "icon": ["own", "src/hi{size}-apps-klettres.png"],

    "description":
        "<p><strong>KLettres</strong> is an application specially designed to help the user to learn alphabet in a new language and then to learn to read simple syllables. The user can be a young child aged from two and a half or an adult that wants to learn the basics of a foreign language.</p><p>There are twenty five languages available at the moment: Arabian, Brazilian Portuguese, Czech, Danish, Dutch, British English, US English, Phonics English, French, German, Hebrew, Hugarian, Italian, Kannada, Low Saxon, Malayalam, Norwegian Bokmål, Punjabi, Luganda, Romanized Hindi, Russian, Spanish, Slovak, Telugu and Ukrainian.</p>",
    "age": "Preschool",
    "subject": "Language",

    "features":
    [
        "4 difficulties and 2 ages modes",
        "Special GUI with delayed keyboard action and scalable themes reasonable for younger users",
        "16 languages available",
        "Download and upload of additional language data using <i>KNewStuff</i>"
    ],
    "homepage": false,
    "kde-apps.org": false,
    "appstream": "org.kde.klettres.desktop",

    "userbase": "KLettres",
    "forum": 21,
    "handbook": "http://docs.kde.org/stable/en/kdeedu/klettres/index.html",

    "irc": "#kde-edu",
    "mailing lists": "kde-edu@kde.org",

    "cia.vc": "kde/klettres",
    "ci": "Applications",
    "bugs": "klettres"
}
