{
    "name": "KMahjongg",
    "parent": "kde/kdegames",
    "repository": ["git", "kmahjongg"],
    "icon": ["own", "hi{size}-app-kmahjongg.png"],

    "description":
        "<p>In <strong>KMahjongg</strong> the tiles are scrambled and staked on top of each other to resemble a certain shape. The player is then expected to remove all the tiles off the game board by locating each tile's matching pair.</p>",

    "features": false,
    "homepage": "http://games.kde.org/game.php?game=kmahjongg",
    "kde-apps.org": false,

    "userbase": false,
    "forum": 21,
    "handbook": "http://docs.kde.org/stable/en/kdegames/kmahjongg/index.html",

    "irc": "#kdegames",
    "mailing lists": "kde-games-devel@kde.org",

    "cia.vc": "kde/kmahjongg",
    "ci": "Applications",
    "bugs": "kmahjongg"
}
