{
    "authors":[
        [
            "Mathias Mueller",
            "Original Author",
            "in5y158@public.uni-hamburg.de",
            null
        ],
        [
            "Mauricio Piacentini",
            "Current maintainer",
            "mauricio@tabuleiro.com",
            null
        ],
        [
            "Albert Astals Cid",
            "Bug fixes",
            "aacid@kde.org",
            null
        ],
        [
            "David Black",
            "KDE 3 rewrite and Extension",
            "david.black@lutris.com",
            null
        ],
        [
            "Michael Haertjens",
            "Solvable game generation\nbased on algorithm by Michael Meeks in GNOME mahjongg",
            "mhaertjens@modusoperandi.com",
            null
        ]
    ],
    "category":"Games",
    "credits":[
        [
            "Raquel Ravanini",
            "SVG Tileset for KDE4",
            "raquel@tabuleiro.com",
            null
        ],
        [
            "Richard Lohman",
            "Tile set contributor and current web page maintainer",
            "richardjlohman@yahoo.com",
            null
        ],
        [
            "Osvaldo Stark",
            "Tile set contributor and original web page maintainer",
            "starko@dnet.it",
            null
        ],
        [
            "Benjamin Meyer",
            "Code cleanup",
            "ben+kmahjongg@meyerhome.net",
            null
        ]
    ],
    "generic name":"Mahjongg Solitaire",
    "license":"GPL"
}