{
    "name": "KMouseTool",
    "parent": "kde/kdeaccessibility",
    "repository": ["git", "kmousetool"],
    "icon": ["own", "kmousetool/pics/hi{size}-app-kmousetool.png"],

    "description":
        "<p><strong>KMouseTool</strong> is a Linux-based KDE program. It clicks the mouse for you, so you don't have to. KMouseTool works with any mouse or pointing device.</p>",

    "features":
    [
        "Clicking",
        "Dragging"
    ],
    "homepage": "http://accessibility.kde.org/aids/kmousetool.php",
    "kde-apps.org": false,

    "userbase": false,
    "forum": false,
    "handbook": "http://docs.kde.org/stable/en/kdeaccessibility/kmousetool/index.html",

    "irc": "#kde-accessibility",
    "mailing lists": "kde-accessibility@kde.org",

    "cia.vc": "kde/kmousetool",
    "ci": "Applications",
    "bugs": "kmousetool"
}
