{
    "name": "KNemo",
    "repository": ["svn", "trunk/extragear/network/knemo/"],
    "icon": ["own", "src/knemod/icons/hi{size}-apps-knemo.png"],

    "description":
        "<p><strong>KNemo</strong> is a tool that monitors the network traffic</p>",

    "features":
    ["A system tray widget for every network interface",
     "Configurable system tray widget's tooltip (select how much information to show)",
     "Support for network statistics",
     "Live network traffic plot",
     "Different icon themes"
    ],
    "homepage": "http://extragear.kde.org/apps/knemo/",
    "kde-apps.org": 12956,

    "userbase": false,
    "forum": 18,
    "handbook": false,

    "irc": false,
    "mailing lists": false,

    "cia.vc": "kde/knemo",
    "bugs": "knemo"
}
