{
    "name": "KNetWalk",
    "parent": "kde/kdegames",
    "repository": ["git", "knetwalk"],
    "icon": ["own", "src/pics/hi{size}-app-knetwalk.png"],

    "description":
        "<p><strong>KNetWalk</strong> is a small game where you have to build up a computer network by rotating the wires to connect the terminals to the server. When the network is build, a highscore-list comes up where competitions can be fought out.</p>",

    "features": false,
    "homepage": "http://games.kde.org/",
    "kde-apps.org": false,

    "userbase": false,
    "forum": 21,
    "handbook": "http://docs.kde.org/stable/en/kdegames/knetwalk/index.html",

    "irc": "#kdegames",
    "mailing lists": "kde-games-devel@kde.org",

    "cia.vc": "kde/knetwalk",
    "ci": "Applications",
    "bugs": "knetwalk"
}
