{
    "authors":[
        [
            "Guillermo Antonio Amaral Bastidas",
            "Maintainer",
            "me@guillermoamaral.com",
            null
        ],
        [
            "Michael Brade",
            "Previous Maintainer",
            "brade@kde.org",
            null
        ],
        [
            "Bernd Johannes Wuebben",
            "Original KNotes Author",
            "wuebben@kde.org",
            null
        ],
        [
            "Wynn Wilkes",
            "Ported KNotes to KDE 2",
            "wynnw@calderasystems.com",
            null
        ],
        [
            "Daniel Martin",
            "Network Interface",
            "daniel.martin@pirack.com",
            null
        ],
        [
            "Bo Thorsen",
            "Started KDE Resource Framework Integration",
            "bo@sonofthor.dk",
            null
        ]
    ],
    "category":"Utilities",
    "credits":[
        [
            "Bera Debajyoti",
            "Idea and initial code for the new look & feel",
            "debajyotibera@gmail.com",
            null
        ],
        [
            "Matthias Ettrich",
            "",
            "ettrich@kde.org",
            null
        ],
        [
            "David Faure",
            "",
            "faure@kde.org",
            null
        ],
        [
            "Matthias Kiefer",
            "",
            "kiefer@kde.org",
            null
        ],
        [
            "Lubo\u0161 Lu\u0148\u00e1k",
            "",
            "l.lunak@kde.org",
            null
        ],
        [
            "Laurent Montel",
            "",
            "montel@kde.org",
            null
        ],
        [
            "Dirk A. Mueller",
            "",
            "dmuell@gmx.net",
            null
        ],
        [
            "Carsten Pfeiffer",
            "",
            "pfeiffer@kde.org",
            null
        ],
        [
            "Harri Porten",
            "",
            "porten@kde.org",
            null
        ],
        [
            "Espen Sand",
            "",
            "espen@kde.org",
            null
        ]
    ],
    "generic name":"Popup Notes",
    "license":"GPL"
}