{
    "name": "Kompare",
    "parent": "kde/kdesdk",
    "repository": ["git", "kompare"],
    "icon": ["own", "pics/hi{size}-app-kompare.png"],

    "description":
        "<p><b>Kompare</b> is a GUI front-end program that enables differences between source files to be viewed and merged. It can be used to compare differences on files or the contents of folders, and it supports a variety of diff formats and provide many options to customize the information level displayed.</p>",

    "features":
    [
        "Comparing directories",
        "Reading diff files",
        "Creating and applying patches"

    ],
    "homepage": false,
    "kde-apps.org": false,

    "userbase": "Kompare",
    "forum": 25,
    "handbook": "http://docs.kde.org/stable/en/kdesdk/kompare/index.html",

    "irc": false,
    "mailing lists": "kompare-devel@kde.org",

    "cia.vc": "kde/kompare",
    "ci": "Applications",
    "bugs": "kompare"
}
