{
    "name": "Konqueror",
    "parent": "kde/applications",
    "repository": ["git", "konqueror"],
    "icon": ["oxygen", "apps/konqueror.png"],

    "description":
        "<p><strong>Konqueror</strong> is KDE's Webbrowser and swiss-army-knife for any kind of file-management and file previewing.</p>",

    "features":
    [
        "Webbrowsing using KHTML or KDEWebKit as rendering engines",
        "File management using most of Dolphin's features (including version-control, service menus and the basic UI)",
        "File management on ftp and sftp servers",
        "Full featured FTP-client (you can split views to display local and remote folders and previews in the same window)",
        "Embedded applications to preview files (e.g. Okular and Calligra for documents, Gwenview for pictures, KTextEditor for text-files)",
        "Different kinds of plugins: Service-menus, KParts (embedded applications), KIO (accessing files using special protocols like http or ftp) and KPart-plugins (like AdBlocker...)"
    ],
    "homepage": "http://www.konqueror.org",
    "kde-apps.org": false,

    "userbase": "Konqueror",
    "forum": 66,
    "handbook": "http://docs.kde.org/?language=en&application=konqueror",

    "irc": false,
    "mailing lists": "kfm-devel@kde.org",

    "ci": "Applications",
    "bugs": "konqueror"
}
