{
    "name": "Kontact",
    "repository": ["git", "kontact"],
	"parent": "kde",
    "icon": ["oxygen", "apps/kontact.png"],

    "description":
        "<p><b>Kontact</b> is the integrated solution to your personal information management (PIM) needs. It combines well-known KDE applications like KMail, KOrganizer and KAddressBook into a single interface to provide easy access to mail, scheduling, address book and other PIM functionality.</p>",

    "features": false,
    "homepage": "http://www.kontact.org/",
    "kde-apps.org": 10531,

    "userbase": "Kontact",
    "forum": 20,
    "handbook": "http://docs.kde.org/?application=kontact",

    "irc": "#kontact",
    "mailing lists": ["kdepim-users@kde.org", "kde-pim@kde.org"],

    "ci": "Applications",
    "bugs": "kontact"
}
