{
    "name": "Konversation",
    "parent": "extragear/network",
    "repository": ["git", "konversation"],
    "icon": ["oxygen", "apps/konversation.png"],

    "description":
        "<p><strong>Konversation</strong> is a IRC client which gives you speedy access to Freenode network's channels, where you will find support for most distributions. Its defaults are such that it needs no configuration other than telling it the name of your distribution channel, to get started.</p>",

    "features":
    ["Standard IRC features",
     "SSL server support",
     "Bookmarking support",
     "Easy to use graphical user interface",
     "Multiple servers and channels in one single window",
     "DCC file transfer",
     "Multiple identities for different servers",
     "Text decorations and colors",
     "OnScreen Display for notifications",
     "Automatic UTF-8 detection",
     "Per channel encoding support",
     "Theme support for nick icons",
     "Highly configurable"
    ],
    "homepage": "http://konversation.kde.org",
    "kde-apps.org": 9927,

    "userbase": "Konversation",
    "forum": 18,
    "handbook": "http://docs.kde.org/development/en/extragear-network/konversation/index.html",

    "irc": "#konversation",
    "mailing lists": "konversation-devel@kde.org",

    "cia.vc": "kde/konversation",
    "ci": "Extragear",
    "bugs": "konversation"
}
