{
    "authors":[
        [
            "Duncan Mac-Vicar Prett",
            "Developer and Project founder",
            "duncan@kde.org",
            "http://www.mac-vicar.org/~duncan"
        ],
        [
            "Andre Duffeck",
            "Developer, Yahoo plugin maintainer",
            "duffeck@kde.org",
            null
        ],
        [
            "Andy Goossens",
            "Developer",
            "andygoossens@telenet.be",
            null
        ],
        [
            "Chris Howells",
            "Developer, Connection status plugin author",
            "howells@kde.org",
            "http://chrishowells.co.uk"
        ],
        [
            "Cl\u00e1udio da Silveira Pinheiro",
            "Developer, Video device support",
            "taupter@gmail.com",
            "http://taupter.homelinux.org"
        ],
        [
            "Gregg Edghill",
            "Developer, MSN",
            "gregg.edghill@gmail.com",
            null
        ],
        [
            "Grzegorz Jaskiewicz",
            "Developer, Gadu plugin maintainer",
            "gj@pointblue.com.pl",
            null
        ],
        [
            "Gustavo Pichorim Boiko",
            "Developer",
            "gustavo.boiko@kdemail.net",
            null
        ],
        [
            "Jason Keirstead",
            "Developer",
            "jason@keirstead.org",
            "http://www.keirstead.org"
        ],
        [
            "Matt Rogers",
            "Lead Developer, AIM and ICQ plugin maintainer",
            "mattr@kde.org",
            null
        ],
        [
            "Michel Hermier",
            "IRC plugin maintainer",
            "michel.hermier@wanadoo.fr",
            null
        ],
        [
            "Micha\u00ebl Larouche",
            "Lead Developer, Telepathy and Messenger plugin maintainer",
            "larouche@kde.org",
            "http://www.tehbisnatch.org/"
        ],
        [
            "Olivier Goffart",
            "Lead Developer, MSN plugin maintainer",
            "ogoffart@kde.org",
            null
        ],
        [
            "Ollivier Lapeyre Johann",
            "Artist / Developer, Artwork maintainer",
            "johann.ollivierlapeyre@gmail.com",
            null
        ],
        [
            "Richard Smith",
            "Developer, UI maintainer",
            "kde@metafoo.co.uk",
            null
        ],
        [
            "Tiago Salem Herrmann",
            "Developer, WLM plugin maintainer",
            "tiagosh@gmail.com",
            null
        ],
        [
            "Till Gerken",
            "Developer, Jabber plugin maintainer",
            "till@tantalo.net",
            null
        ],
        [
            "Will Stephenson",
            "Lead Developer, GroupWise maintainer",
            "wstephenson@kde.org",
            null
        ],
        [
            "Rafael Fern\u00e1ndez L\u00f3pez",
            "Developer",
            "ereslibre@kde.org",
            null
        ],
        [
            "Roman Jarosz",
            "Developer, AIM and ICQ",
            "kedgedev@centrum.cz",
            null
        ],
        [
            "Charles Connell",
            "Developer",
            "charles@connells.org",
            null
        ],
        [
            "Tejas Dinkar",
            "Developer, Bonjour Plugin Maintainer",
            "tejas@gja.in",
            "http://www.gja.in"
        ],
        [
            "Pali Roh\u00e1r",
            "Developer, Skype plugin maintainer",
            "pali.rohar@gmail.com",
            null
        ]
    ],
    "category":"Internet",
    "credits":[
        [
            "Vally8",
            "Konki style author",
            "vally8@gmail.com",
            "http://vally8.free.fr/"
        ],
        [
            "Tm_T",
            "Hacker style author",
            "jussi.kekkonen@gmail.com",
            null
        ],
        [
            "Luciash d' Being",
            "Kopete's icon author",
            null,
            null
        ],
        [
            "Steve Cable",
            "Sounds",
            null,
            null
        ],
        [
            "Jessica Hall",
            "Kopete Docugoddess, Bug and Patch Testing.",
            null,
            null
        ],
        [
            "Justin Karneges",
            "Iris Jabber Backend Library",
            null,
            null
        ],
        [
            "Tom Linsky",
            "OscarSocket author",
            "twl6@po.cwru.edu",
            null
        ],
        [
            "Olaf Lueg",
            "Kmerlin MSN code",
            null,
            null
        ],
        [
            "Chetan Reddy",
            "Former developer",
            "chetan13@gmail.com",
            null
        ],
        [
            "Nick Betcher",
            "Former developer, project co-founder",
            "nbetcher@kde.org",
            null
        ],
        [
            "Ryan Cumming",
            "Former developer",
            "ryan@kde.org",
            null
        ],
        [
            "Stefan Gehn",
            "Former developer",
            "metz@gehn.net",
            "http://metz.gehn.net"
        ],
        [
            "Martijn Klingens",
            "Former developer",
            "klingens@kde.org",
            null
        ],
        [
            "Andres Krapf",
            "Former developer",
            "dae@chez.com",
            null
        ],
        [
            "Carsten Pfeiffer",
            "Misc bugfixes and enhancements",
            "pfeiffer@kde.org",
            null
        ],
        [
            "Zack Rusin",
            "Former developer, original Gadu plugin author",
            "zack@kde.org",
            null
        ],
        [
            "Richard Stellingwerff",
            "Former developer",
            "remenic@linuxfromscratch.org",
            null
        ],
        [
            "Daniel Stone",
            "Former developer, Jabber plugin author",
            "daniel@fooishbar.org",
            "http://fooishbar.org"
        ],
        [
            "Chris TenHarmsel",
            "Former developer, Oscar plugin",
            "chris@tenharmsel.com",
            null
        ],
        [
            "Hendrik vom Lehn",
            "Former developer",
            "hennevl@hennevl.de",
            "http://www.hennevl.de"
        ],
        [
            "Gav Wood",
            "Former developer and WinPopup maintainer",
            "gav@indigoarchive.net",
            null
        ]
    ],
    "generic name":"Instant Messenger",
    "license":"GPL"
}