{
    "authors":[
        [
            "Jesper K. Pedersen",
            "Development",
            "blackie@kde.org",
            null
        ],
        [
            "Hassan Ibraheem",
            "Development",
            "hasan.ibraheem@gmail.com",
            null
        ],
        [
            "Miika Turkia",
            "Development",
            "theBro@luukku.com",
            null
        ],
        [
            "Tuomas Suutari",
            "SQL backend and numerous features",
            "thsuut@utu.fi",
            null
        ],
        [
            "Jan Kundrat",
            "Development",
            "jkt@gentoo.org",
            null
        ],
        [
            "Henner Zeller",
            "Development",
            "h.zeller@acm.org",
            null
        ]
    ],
    "category":"Graphics",
    "credits":[
        [
            "Will Stephenson",
            "Developing an Icon for KPhotoAlbum",
            "will@stevello.free-online.co.uk",
            null
        ],
        [
            "Teemu Rytilahti",
            "Sending patches implementing (.) the \"Set As Wallpaper\" menu in the viewer.(.) Theme support for HTML generation",
            "teemu.rytilahti@kde-fi.org",
            null
        ],
        [
            "Reimar Imhof",
            "Patch to sort items in option listboxes",
            "Reimar.Imhof@netCologne.de",
            null
        ],
        [
            "Thomas Schwarzgruber",
            "Patch to sort images in the thumbnail view, plus reading time info out of EXIF images for existing images",
            "possebaer@gmx.at",
            null
        ],
        [
            "Marcel Wiesweg",
            "Patch which speed up loading of thumbnails plus preview in image property dialog.",
            "marcel.wiesweg@gmx.de",
            null
        ],
        [
            "Marco Caldarelli",
            "Patch for making it possible to reread EXIF info using a nice dialog.",
            "caldarel@yahoo.it",
            null
        ],
        [
            "Jean-Michel FAYARD",
            "(.) Patch with directory info made available through the browser. (.) Patch for adding a check box for \"and/or\" searches in the search page.",
            "jmfayard@gmail.com",
            null
        ],
        [
            "Robert L Krawitz",
            "Numerous patches plus profiling KPhotoAlbum again and again.",
            "rlk@alum.mit.edu",
            null
        ],
        [
            "Christoph Moseler",
            "Numerous patches for lots of bugs plus patches for a few new features",
            "forums@moseler.net",
            null
        ],
        [
            "Clytie Siddall",
            "Tremendous help with the English text in the application.",
            "clytie@riverland.net.au",
            null
        ]
    ],
    "generic name":"Photo Album",
    "license":"GPL"
}