{
    "authors":[
        [
            "Urs Wolfer",
            "Developer, Maintainer",
            "uwolfer@kde.org",
            null
        ],
        [
            "Tony Murray",
            "Developer",
            "murraytony@gmail.com",
            null
        ],
        [
            "Tim Jansen",
            "Former Developer",
            "tim@tjansen.de",
            null
        ],
        [
            "Arend van Beelen jr.",
            "Initial RDP backend",
            "arend@auton.nl",
            null
        ],
        [
            "Abner Silva",
            "Telepathy Tubes Integration",
            "abner.silva@kdemail.net",
            null
        ]
    ],
    "category":"Internet",
    "credits":[
        [
            "Brad Hards",
            "Google Summer of Code 2007 KRDC project mentor",
            "bradh@frogmouth.net",
            null
        ],
        [
            "LibVNCServer / LibVNCClient developers",
            "VNC client library",
            "libvncserver-common@lists.sf.net",
            null
        ]
    ],
    "generic name":"Remote Desktop Client",
    "license":"GPL"
}