{
    "name": "KReversi",
    "parent": "kde/kdegames",
    "repository": ["git", "kreversi"],
    "icon": ["own", "icons/hi{size}-app-kreversi.png"],

    "description":
        "<p><strong>KReversi</strong> is a simple one player strategy game played against the computer. If a player's piece is captured by an opposing player, that piece is turned over to reveal the color of that player. A winner is declared when one player has more pieces of his own color on the board and there are no more possible moves.</p>",

    "features": false,
    "homepage": "http://games.kde.org/game.php?game=kreversi",
    "kde-apps.org": false,

    "userbase": false,
    "forum": 21,
    "handbook": "http://docs.kde.org/stable/en/kdegames/kreversi/index.html",

    "irc": "#kdegames",
    "mailing lists": "kde-games-devel@kde.org",

    "cia.vc": "kde/kreversi",
    "ci": "Applications",
    "bugs": "kreversi"
}
