{
    "authors":[
        [
            "Aaron J. Seigo",
            "Previous maintainer",
            "aseigo@kde.org",
            null
        ],
        [
            "Alexander Kern",
            "Workman library update, CDTEXT, CDDA",
            "kernalex@kde.org",
            null
        ],
        [
            "Bernd Johannes Wuebben",
            "",
            "wuebben@kde.org",
            null
        ],
        [
            "Dirk F\u00f6rsterling",
            "Workman library, previous maintainer",
            "milliByte@gmx.net",
            null
        ]
    ],
    "category":"Multimedia",
    "credits":[
        [
            "Amine Bouchikhi",
            "Current maintainer, Solid/Phonon Upgrade, QDBus connection",
            "bouchikhi.amine@gmail.com",
            null
        ],
        [
            "Wilfried Huss",
            "Patches galore",
            null,
            null
        ],
        [
            "Steven Grimm",
            "Workman library",
            null,
            null
        ],
        [
            "Sven Lueppken",
            "UI Work",
            null,
            null
        ],
        [
            "freedb.org",
            "Special thanks to freedb.org for providing a free CDDB-like CD database",
            "",
            "http://freedb.org"
        ]
    ],
    "generic name":"CD Player",
    "license":"GPL"
}