{
    "authors":[
        [
            "Gael de Chalendar aka Kleag",
            "",
            "kleag@free.fr",
            null
        ],
        [
            "Robin Doer",
            null,
            null,
            null
        ],
        [
            "Albert Astals Cid",
            null,
            null,
            null
        ],
        [
            "Michal Golunski (Polish translation)",
            "",
            "michalgolunski@o2.pl",
            null
        ],
        [
            "French students of the 'IUP ISI 2007-2008':",
            null,
            null,
            null
        ],
        [
            "&nbsp;&nbsp;Anthony Rey<br/>&nbsp;&nbsp;Benjamin Lucas<br/>&nbsp;&nbsp;Benjamin Moreau<br/>&nbsp;&nbsp;Ga\u00ebl Clouet<br/>&nbsp;&nbsp;Guillaume Pelouas<br/>&nbsp;&nbsp;Jo\u00ebl Marco<br/>&nbsp;&nbsp;Laurent Dang<br/>&nbsp;&nbsp;Nicolas Linard<br/>&nbsp;&nbsp;Vincent Sac",
            null,
            null,
            null
        ]
    ],
    "category":"Games",
    "credits":[],
    "generic name":"World Domination Strategy Game",
    "license":"GPL"
}