{
    "authors":[
        [
            "Francesco Rossi",
            "KSudoku Author",
            "redsh@email.it",
            null
        ],
        [
            "Johannes Bergmeier",
            "Maintainer",
            "Johannes.Bergmeier@gmx.net",
            null
        ],
        [
            "Mick Kappenburg",
            "Printing and export of 0.4",
            "ksudoku@kappendburg.net",
            null
        ],
        [
            "Thanks to NeHe for OpenGL tutorials",
            "",
            "nehe.gamedev.net",
            null
        ]
    ],
    "category":"Games",
    "credits":[],
    "generic name":"Sudoku Game",
    "license":"GPL_V2"
}