{
    "authors":[
        [
            "Stefan Schimanski",
            "",
            "schimmi@kde.org",
            null
        ]
    ],
    "category":"Utilities",
    "credits":[],
    "generic name":"Countdown Launcher",
    "license":"GPL"
}