{
    "authors":[
        [
            "Richard Moore",
            "",
            "rich@kde.org",
            null
        ],
        [
            "Ian Reinhart Geiser",
            "",
            "geiseri@kde.org",
            null
        ],
        [
            "Benjamin C. Meyer",
            "",
            "ben+kuiviewer@meyerhome.net",
            null
        ]
    ],
    "category":"Development",
    "credits":[],
    "generic name":"Qt Designer UI File Viewer",
    "license":"LGPL"
}