{
    "name": "KUser",
    "repository": ["git", "kuser"],
    "icon": ["own", "icon/hi{size}-app-kuser.png"],

    "description":
        "<p><strong>KUser</strong> is a tool for managing users and groups on your system.</p>",

    "features":
    [
        "User and group creation and edition",
        "Easy password and group management for each user"
    ],
    "homepage": false,
    "kde-apps.org": false,

    "userbase": "KUser",
    "forum": false,
    "handbook": false,

    "irc": false,
    "mailing lists": false,

    "bugs": "kuser"
}
