{
    "authors":[
        [
            "Thomas Eschenbacher",
            "Project leader since 2000, core development",
            "Thomas.Eschenbacher@gmx.de",
            null
        ],
        [
            "Martin Wilz",
            "Project leader since 2000, core development",
            "Creator of the project, development 1998-2000",
            null
        ],
        [
            "Ralf Waspe",
            "Creator of the Help/About dialog",
            "rwaspe@web.de",
            null
        ],
        [
            "Caulier Gilles",
            "splashscreen, tests and bugfixes",
            "Tsplashscreen, tests and bugfixes",
            null
        ],
        [
            "Dave Flogeras",
            "Notch filter plugin",
            "d.flogeras@unb.ca",
            null
        ],
        [
            "Rik Hemsley",
            "Level meter",
            "rik@kde.org",
            null
        ],
        [
            "Joerg-Christian Boehme",
            "PulseAudio record plugin",
            "joerg@chaosdorf.de",
            null
        ]
    ],
    "category":"Multimedia ",
    "credits":[
        [
            "Stefan Westerfeld",
            "Author of aRts",
            "stefan@space.twc.de",
            null
        ],
        [
            "Sven-Steffen Arndt",
            "Kwave homepage and German online help",
            "ssa29@gmx.de",
            null
        ],
        [
            "Aurelien Jarno",
            "Debian packager",
            "aurel32@debian.org",
            null
        ],
        [
            "Robert M. Stockmann",
            "Packaging for Mandrake / X86_64",
            "stock@stokkie.net",
            null
        ],
        [
            "Martin Kuball",
            "Tester",
            "makube@user.sourceforge.net",
            null
        ],
        [
            "Robert Leslie",
            "Author of the 'mad' MP3 decoder library",
            "rob@mars.org",
            null
        ],
        [
            "Robert Leslie",
            "Author of the 'mad' MP3 decoder library",
            "rob@mars.org",
            null
        ],
        [
            "T.H.F. Klok and Cedric Tefft",
            "Maintainers of the 'id3lib' library",
            null,
            null
        ],
        [
            "Michael Pruett",
            "Author of the 'audiofile' library",
            "mpruett@sgi.com",
            null
        ],
        [
            "Carlos R.",
            "Spanish translation",
            "pureacetone@gmail.com",
            null
        ],
        [
            "Erik de Castro Lopo",
            "Author of the 'sndfile' library",
            "erikd@zip.com.au",
            null
        ],
        [
            "Pavel Fric",
            "Czech translation",
            "pavelfric@seznam.cz",
            null
        ],
        [
            "Panagiotis Papadopoulos",
            "String and i18n updates",
            "pano_90@gmx.net",
            null
        ]
    ],
    "generic name":"Sound Editor",
    "license":"GPL_V2"
}
