{
    "authors":[
        [
            "Nick Shaforostoff",
            "",
            "shaforostoff@kde.ru",
            null
        ]
    ],
    "category":"Development",
    "credits":[
        [
            "Google Inc.",
            "sponsored development as part of Google Summer Of Code program",
            "ByteArray(",
            "http://google.com"
        ],
        [
            "Translate-toolkit",
            "provided excellent cross-format converting scripts",
            "ByteArray(",
            "http://translate.sourceforge.net"
        ],
        [
            "Viesturs Zarins",
            "project tree merging translation+templates",
            "viesturs.zarins@mii.lu.lv",
            "ByteArray("
        ],
        [
            "Stephan Johach",
            "bug fixing patches",
            "hunsum@gmx.de",
            null
        ],
        [
            "Chusslove Illich",
            "bug fixing patches",
            "caslav.ilic@gmx.net",
            null
        ],
        [
            "Jure Repinc",
            "testing and bug fixing",
            "jlp@holodeck1.com",
            null
        ],
        [
            "Stefan Asserhall",
            "patches",
            "stefan.asserhall@comhem.se",
            null
        ],
        [
            "Papp Laszlo",
            "bug fixing patches",
            "djszapi@archlinux.us",
            null
        ]
    ],
    "generic name":"Computer-Aided Translation System",
    "license":"GPL"
}