{
    "name": "LsKat",
    "parent": "kde/kdegames",
    "repository": ["git", "lskat"],
    "icon": ["own", "hi{size}-app-lskat.png"],

    "description":
        "<p><strong>Lieutnant Skat</strong> (from German \"Offiziersskat\") is a fun and engaging card game for two players, where the second player is either live opponent, or a built in artificial intelligence.</p>",

    "features": false,
    "homepage": "http://games.kde.org/game.php?game=lskat",
    "kde-apps.org": false,

    "userbase": false,
    "forum": 21,
    "handbook": "http://docs.kde.org/stable/en/kdegames/lskat/index.html",

    "irc": "#kdegames",
    "mailing lists": "kde-games-devel@kde.org",

    "cia.vc": "kde/lskat",
    "ci": "Applications",
    "bugs": "lskat"
}
