{
    "name": "Marble",
    "repository": ["git", "marble"],
    "icon": ["own", "data/icons/hi{size}-app-marble.png"],

    "description":
        "<p><strong>Marble</strong> is a Virtual Globe and World Atlas that you can use to learn more about the Earth.</p>",
    "age": "School",
    "subject": "Science",

    "features":
    [
            "You can pan and zoom around and you can look up places and roads",
            "A mouse click on a place label will provide the respective Wikipedia article",
            "You can measure distances between locations",
            "It offers different thematic maps: a classroom-style topographic map, a satellite view, street map, Earth at night and temperature and precipitation maps. All maps include a custom map key, so it can also be used as an educational tool for use in classrooms",
            "For educational purposes you can also change date and time and watch how the starry sky and the twilight zone on the map change",
            "Supports multiple projections: choose between a Flat Map (\"Plate carré\"), Mercator or the Globe",
            "Promotes the usage of free maps"
    ],
    "homepage": "https://marble.kde.org/",
    "kde-apps.org": 55105,
    "appstream": "org.kde.marble.desktop",

    "userbase": "Marble",
    "forum": 21,
    "handbook": "http://docs.kde.org/stable/en/kdeedu/marble/index.html",

    "irc": ["#marble", "#kde-edu"],
    "mailing lists": "marble-devel@kde.org",

    "cia.vc": "kde/marble",
    "ci": "Applications",
    "bugs": "marble"
}
