{
    "name": "Okteta",
    "parent": "extragear/utils",
    "repository": ["git", "okteta"],
    "icon": ["oxygen", "apps/okteta.png"],

    "description":
        "<p><b>Okteta</b> is a simple editor for the raw data of files.</p>",

    "features":
    [
        "Values and characters shown either in two columns (the traditional display in hex editors) or in rows with the value on top of the character",
        "Editing and navigating similar to a text editor",
        "Customizable data views",
        "Data view profiles",
        "Tools dockable on all sides or floating",
        "Numerical encodings: Hexadecimal, Decimal, Octal, Binary",
        "Character encodings: All 8-bit encodings as <a href=\"https://doc.qt.io/qt-5/QTextCodec.html\">supplied</a> by Qt, EBCDIC",
        "Fast data rendering on screen",
        "Multiple open files",
        "Support for remote files, by http, ftp, fish &amp; other protocols supported by KDE Platform",
        "Export of data to text, both file and clipboard.",
        "Checksum/Hashsum calculator: Modular sum (8/16/32/64 bit), Adler-32, CRC-32 and Hashsums by the <a href=\"http://delta.affinix.com/qca/\">QCA2 library</a>, can be SHA-0/1/224/256/384/512, MD2/4/5, RIPEMD-160, Whirlpool",
        "Structures tool for analyzing and editing based on user-creatable structure definitions",
        "Statistic tool",
        "String extraction tool",
        "8-bit charset conversion tool",
        "Decoding table listing common simple data types.",
        "Bookmarks",
        "Printing",
        "Table with complete list of all byte values"
    ],
    "homepage": false,
    "kde-apps.org": false,
    "appstream": "org.kde.okteta.desktop",

    "userbase": "Okteta",
    "forum": 225,
    "handbook": "https://docs.kde.org/stable5/en/extragear-utils/okteta/index.html",

    "irc": false,
    "mailing lists": false,

    "cia.vc": "kde/okteta",
    "ci": "Extragear",
    "bugs": "okteta"
}
