{
    "authors":[
        [
            "Frederik Gladhorn",
            "Developer and maintainer",
            "gladhorn@kde.org",
            null
        ],
        [
            "Daniel Laidig",
            "Developer",
            "d.laidig@gmx.de",
            null
        ],
        [
            "David Capel",
            "Practice Dialogs",
            "wot.narg@gmail.com",
            null
        ],
        [
            "Avgoustinos Kadis",
            "Scripting",
            "avgoustinos.kadis@kdemail.net",
            null
        ],
        [
            "Peter Hedlund",
            "Countless fixes, former maintainer, port to KDE4",
            "peter.hedlund@kdemail.net",
            null
        ],
        [
            "Ewald Arnold",
            "Original Author",
            "kvoctrain@ewald-arnold.de",
            "http://www.ewald-arnold.de"
        ]
    ],
    "category":"Education",
    "credits":[
        [
            "Lee Olson",
            "Artwork and Oxygen Icons",
            null,
            null
        ],
        [
            "Anne-Marie Mahfouf",
            "Port to KConfig XT",
            null,
            null
        ],
        [
            "Jeremy Whiting",
            "Rewriting the kvtml library for KDE4",
            null,
            null
        ],
        [
            "Markus B\u00fcchele",
            "Bug reports and testing on the way to KDE4",
            null,
            null
        ],
        [
            "Ramona Knapp",
            "Conceived the name Parley",
            null,
            null
        ]
    ],
    "generic name":"Vocabulary Trainer",
    "license":"GPL"
}