{
    "name": "Skanlite",
    "parent": "extragear/graphics",
    "repository": ["git", "skanlite"],
    "icon": ["oxygen", "devices/scanner.png"],

    "description":
        "<p><b>Skanlite</b> is a simple image scanning application that does nothing more than scan and save images, based on the KSane backend.</p>",

    "features": false,
    "homepage": false,
    "kde-apps.org": 109803,

    "userbase": "Skanlite",
    "forum": 19,
    "handbook": "http://docs.kde.org/development/en/extragear-graphics/skanlite/index.html",

    "irc": false,
    "mailing lists": false,

    "cia.vc": "kde/skanlite",
    "bugs": "skanlite"
}
