{
    "name": "Smb4K",
    "parent": "extragear/network",
    "repository": ["git", "smb4k"],
    "icon": ["oxygen", "smb4k.png"],

    "description":
        "<p><strong>Smb4K</strong> is an advanced network neighborhood browser and Samba share mounting utility. It provides many handy features that ease your life in a mostly Windows-dominated network environment.</p>",

    "features":
    ["Scanning for (active) workgroups, hosts, and shares",
     "Support of the CIFS (Linux) and SMBFS (FreeBSD, NetBSD) file system",
     "Mounting and unmounting of share",
     "Access to the files of a mounted share using a file manager or terminal",
     "Auto-detection of external mounts and unmounts",
     "Remounting of previously used shares on program start",
     "Miscellaneous infos about remote network items and mounted shares",
     "Network search",
     "WINS server support",
     "Preview of the contents of a remote share",
     "Several methods to look up the initial list of workgroups and domains",
     "Default login",
     "Special handling of homes shares",
     "Ability to bookmark favorite shares",
     "System tray widget",
     "Support of advanced Samba options",
     "Support of printer shares",
     "KWallet support",
     "Synchronization of a remote share with a local copy and vice versa",
     "Ability to define custom options for individual servers and shares",
     "Laptop support through the Solid hardware device framework",
     "Wake-On-LAN capabilities",
     "Plasmoid for desktop integration",
     "Profiles for different network neighborhood setups"
    ],
    "homepage": "https://sourceforge.net/p/smb4k/home/Home/",
    "kde-apps.org": 9814,

    "userbase": "Smb4K",
    "forum": 18,
    "handbook": "http://docs.kde.org/?application=smb4k",

    "irc": false,
    "mailing lists": false,

    "bugs": false
}
