{
    "authors":[
        [
            "Steve Allewell",
            "Developer",
            "steve.allewell@gmail.com",
            null
        ]
    ],
    "category":"Graphics",
    "generic name":"Cross Stitch Symbol Editor",
    "license":"GPL"
}