{
    "name": "Words",
    "repository": ["git", "calligra"],
    "icon": ["oxygen", "apps/words.jpg"],

    "description":
        "<p><b>Words</b> is an intuitive word processor and desktop publisher application. With it, you can create informative and attractive documents with pleasure and ease.</p>",

    "features":
    [
        "Frame-based editing",
        "Allows embedding of Documents",
        "Customization of user interface",
        "Includes all features expected from a modern word processor",
        "ODT (Open Document Text) support"
    ],
    "homepage": "http://www.calligra.org/words/",
    "kde-apps.org": false,

    "userbase": "Words",
    "forum": 203,
    "handbook": false,

    "irc": "#calligra",
    "mailing lists": "calligra-devel@kde.org",

    "cia.vc": false,
    "ci": "Calligra",
    "bugs": "calligrawords"
}
